[gd_resource type="TileSet" load_steps=16 format=2]

[ext_resource path="res://assets/map/ground_rock.png" type="Texture" id=1]
[ext_resource path="res://assets/map/ground_cave.png" type="Texture" id=2]
[ext_resource path="res://assets/map/ground.png" type="Texture" id=3]
[ext_resource path="res://assets/map/grass.png" type="Texture" id=4]
[ext_resource path="res://assets/map/key_yellow.png" type="Texture" id=5]
[ext_resource path="res://assets/map/ground_sand.png" type="Texture" id=6]
[ext_resource path="res://assets/map/ground_dirt.png" type="Texture" id=7]
[ext_resource path="res://assets/map/crate.png" type="Texture" id=8]
[ext_resource path="res://assets/map/water.png" type="Texture" id=9]

[sub_resource type="ConvexPolygonShape2D" id=1]
points = PoolVector2Array( 70, 70, 0, 70, 0, 0, 70, 0 )

[sub_resource type="ConvexPolygonShape2D" id=2]
points = PoolVector2Array( 70, 70, 0, 70, 0, 0, 70, 0 )

[sub_resource type="ConvexPolygonShape2D" id=3]
points = PoolVector2Array( 70, 70, 0, 70, 0, 0, 70, 0 )

[sub_resource type="ConvexPolygonShape2D" id=4]
points = PoolVector2Array( 70, 70, 0, 70, 0, 0, 70, 0 )

[sub_resource type="ConvexPolygonShape2D" id=5]
points = PoolVector2Array( 70, 70, 0, 70, 0, 0, 70, 0 )

[sub_resource type="ConvexPolygonShape2D" id=6]
points = PoolVector2Array( 70, 70, 0, 70, 0, 0, 70, 0 )

[resource]
0/name = "ground.png 0"
0/texture = ExtResource( 3 )
0/tex_offset = Vector2( 0, 0 )
0/modulate = Color( 1, 1, 1, 1 )
0/region = Rect2( 0, 0, 70, 70 )
0/tile_mode = 0
0/occluder_offset = Vector2( 0, 0 )
0/navigation_offset = Vector2( 0, 0 )
0/shape_offset = Vector2( 0, 0 )
0/shape_transform = Transform2D( 1, 0, 0, 1, 0, 0 )
0/shape = SubResource( 1 )
0/shape_one_way = false
0/shape_one_way_margin = 1.0
0/shapes = [ {
"autotile_coord": Vector2( 0, 0 ),
"one_way": false,
"one_way_margin": 1.0,
"shape": SubResource( 1 ),
"shape_transform": Transform2D( 1, 0, 0, 1, 0, 0 )
} ]
0/z_index = 0
1/name = "ground_cave.png 1"
1/texture = ExtResource( 2 )
1/tex_offset = Vector2( 0, 0 )
1/modulate = Color( 1, 1, 1, 1 )
1/region = Rect2( 0, 0, 70, 70 )
1/tile_mode = 0
1/occluder_offset = Vector2( 0, 0 )
1/navigation_offset = Vector2( 0, 0 )
1/shape_offset = Vector2( 0, 0 )
1/shape_transform = Transform2D( 1, 0, 0, 1, 0, 0 )
1/shape = SubResource( 2 )
1/shape_one_way = false
1/shape_one_way_margin = 1.0
1/shapes = [ {
"autotile_coord": Vector2( 0, 0 ),
"one_way": false,
"one_way_margin": 1.0,
"shape": SubResource( 2 ),
"shape_transform": Transform2D( 1, 0, 0, 1, 0, 0 )
} ]
1/z_index = 0
2/name = "ground_dirt.png 2"
2/texture = ExtResource( 7 )
2/tex_offset = Vector2( 0, 0 )
2/modulate = Color( 1, 1, 1, 1 )
2/region = Rect2( 0, 0, 70, 70 )
2/tile_mode = 0
2/occluder_offset = Vector2( 0, 0 )
2/navigation_offset = Vector2( 0, 0 )
2/shape_offset = Vector2( 0, 0 )
2/shape_transform = Transform2D( 1, 0, 0, 1, 0, 0 )
2/shape = SubResource( 3 )
2/shape_one_way = false
2/shape_one_way_margin = 1.0
2/shapes = [ {
"autotile_coord": Vector2( 0, 0 ),
"one_way": false,
"one_way_margin": 1.0,
"shape": SubResource( 3 ),
"shape_transform": Transform2D( 1, 0, 0, 1, 0, 0 )
} ]
2/z_index = 0
3/name = "ground_rock.png 3"
3/texture = ExtResource( 1 )
3/tex_offset = Vector2( 0, 0 )
3/modulate = Color( 1, 1, 1, 1 )
3/region = Rect2( 0, 0, 70, 70 )
3/tile_mode = 0
3/occluder_offset = Vector2( 0, 0 )
3/navigation_offset = Vector2( 0, 0 )
3/shape_offset = Vector2( 0, 0 )
3/shape_transform = Transform2D( 1, 0, 0, 1, 0, 0 )
3/shape = SubResource( 4 )
3/shape_one_way = false
3/shape_one_way_margin = 1.0
3/shapes = [ {
"autotile_coord": Vector2( 0, 0 ),
"one_way": false,
"one_way_margin": 1.0,
"shape": SubResource( 4 ),
"shape_transform": Transform2D( 1, 0, 0, 1, 0, 0 )
} ]
3/z_index = 0
4/name = "ground_sand.png 4"
4/texture = ExtResource( 6 )
4/tex_offset = Vector2( 0, 0 )
4/modulate = Color( 1, 1, 1, 1 )
4/region = Rect2( 0, 0, 70, 70 )
4/tile_mode = 0
4/occluder_offset = Vector2( 0, 0 )
4/navigation_offset = Vector2( 0, 0 )
4/shape_offset = Vector2( 0, 0 )
4/shape_transform = Transform2D( 1, 0, 0, 1, 0, 0 )
4/shape = SubResource( 5 )
4/shape_one_way = false
4/shape_one_way_margin = 1.0
4/shapes = [ {
"autotile_coord": Vector2( 0, 0 ),
"one_way": false,
"one_way_margin": 1.0,
"shape": SubResource( 5 ),
"shape_transform": Transform2D( 1, 0, 0, 1, 0, 0 )
} ]
4/z_index = 0
5/name = "crate.png 5"
5/texture = ExtResource( 8 )
5/tex_offset = Vector2( 0, 0 )
5/modulate = Color( 1, 1, 1, 1 )
5/region = Rect2( 0, 0, 70, 70 )
5/tile_mode = 0
5/occluder_offset = Vector2( 0, 0 )
5/navigation_offset = Vector2( 0, 0 )
5/shape_offset = Vector2( 0, 0 )
5/shape_transform = Transform2D( 1, 0, 0, 1, 0, 0 )
5/shape = SubResource( 6 )
5/shape_one_way = false
5/shape_one_way_margin = 1.0
5/shapes = [ {
"autotile_coord": Vector2( 0, 0 ),
"one_way": false,
"one_way_margin": 1.0,
"shape": SubResource( 6 ),
"shape_transform": Transform2D( 1, 0, 0, 1, 0, 0 )
} ]
5/z_index = 0
7/name = "key_yellow.png 7"
7/texture = ExtResource( 5 )
7/tex_offset = Vector2( 0, 10 )
7/modulate = Color( 1, 1, 1, 1 )
7/region = Rect2( 0, 0, 60, 37 )
7/tile_mode = 0
7/occluder_offset = Vector2( 0, 0 )
7/navigation_offset = Vector2( 0, 0 )
7/shape_offset = Vector2( 0, 0 )
7/shape_transform = Transform2D( 1, 0, 0, 1, 0, 0 )
7/shape_one_way = false
7/shape_one_way_margin = 0.0
7/shapes = [  ]
7/z_index = 0
8/name = "water.png 8"
8/texture = ExtResource( 9 )
8/tex_offset = Vector2( 5, 25 )
8/modulate = Color( 1, 1, 1, 1 )
8/region = Rect2( 0, 0, 70, 45 )
8/tile_mode = 0
8/occluder_offset = Vector2( 0, 0 )
8/navigation_offset = Vector2( 0, 0 )
8/shape_offset = Vector2( 0, 0 )
8/shape_transform = Transform2D( 1, 0, 0, 1, 0, 0 )
8/shape_one_way = false
8/shape_one_way_margin = 0.0
8/shapes = [  ]
8/z_index = 0
9/name = "grass.png 9"
9/texture = ExtResource( 4 )
9/tex_offset = Vector2( 10, 25 )
9/modulate = Color( 1, 1, 1, 1 )
9/region = Rect2( 0, 0, 35, 40 )
9/tile_mode = 0
9/occluder_offset = Vector2( 10, 10 )
9/navigation_offset = Vector2( 0, 0 )
9/shape_offset = Vector2( 0, 0 )
9/shape_transform = Transform2D( 1, 0, 0, 1, 0, 0 )
9/shape_one_way = false
9/shape_one_way_margin = 0.0
9/shapes = [  ]
9/z_index = 0
